…
Looks sort of right. The steps are 0 a lot. Perhaps people are sleeping?

## What is mean total number of steps taken per day?


```r
all_daily_mean_steps = summarize(group_by(activity, date), mean_steps=mean(steps))
all_daily_mean_steps
```

```
## # A tibble: 61 x 2
##    date       mean_steps
##    <date>          <dbl>
##  1 2012-10-01     NA    
##  2 2012-10-02      0.438
##  3 2012-10-03     39.4  
##  4 2012-10-04     42.1  
##  5 2012-10-05     46.2  
##  6 2012-10-06     53.5  
##  7 2012-10-07     38.2  
##  8 2012-10-08     NA    
##  9 2012-10-09     44.5  
## 10 2012-10-10     34.4  
## # ... with 51 more rows
```

Those NAs are making me nervous, so let's drop them:

```r
activity_lite = drop_na(activity)
daily_mean_steps = summarize(group_by(activity_lite, date), daily_mean_steps=mean(steps))
daily_mean_steps
```

```
## # A tibble: 53 x 2
##    date       daily_mean_steps
##    <date>                <dbl>
##  1 2012-10-02            0.438
##  2 2012-10-03           39.4  
##  3 2012-10-04           42.1  
##  4 2012-10-05           46.2  
##  5 2012-10-06           53.5  
##  6 2012-10-07           38.2  
##  7 2012-10-09           44.5  
##  8 2012-10-10           34.4  
##  9 2012-10-11           35.8  
## 10 2012-10-12           60.4  
## # ... with 43 more rows
```
…
No, the question asked for steps over the time of day over all days.


```r
interval_mean_steps = summarize(group_by(activity_lite, interval), interval_mean_steps=mean(steps))
interval_mean_steps
```

```
## # A tibble: 288 x 2
##    interval interval_mean_steps
##       <int>               <dbl>
##  1        0              1.72  
##  2        5              0.340 
##  3       10              0.132 
##  4       15              0.151 
##  5       20              0.0755
##  6       25              2.09  
##  7       30              0.528 
##  8       35              0.868 
##  9       40              0     
## 10       45              1.47  
## # ... with 278 more rows
```
…
## Are there differences in activity patterns between weekdays and weekends?

Create the weekday:


```r
activity_lite$weekday = weekdays(activity_lite$date)
activity_lite
```

```
## # A tibble: 15,264 x 4
##    steps date       interval weekday
##    <dbl> <date>        <int> <chr>  
##  1     0 2012-10-02        0 Tuesday
##  2     0 2012-10-02        5 Tuesday
##  3     0 2012-10-02       10 Tuesday
##  4     0 2012-10-02       15 Tuesday
##  5     0 2012-10-02       20 Tuesday
##  6     0 2012-10-02       25 Tuesday
##  7     0 2012-10-02       30 Tuesday
##  8     0 2012-10-02       35 Tuesday
##  9     0 2012-10-02       40 Tuesday
## 10     0 2012-10-02       45 Tuesday
## # ... with 15,254 more rows
```
…
```
## Warning: Unknown or uninitialised column: 'weekend'.
```

```r
activity_lite$weekend[!grepl("Saturday|Sunday", activity_lite$weekday)]=("Weekday")
activity_lite$weekend <- as.factor(activity_lite$weekend)
activity_lite
```

```
## # A tibble: 15,264 x 5
##    steps date       interval weekday weekend
##    <dbl> <date>        <int> <chr>   <fct>  
##  1     0 2012-10-02        0 Tuesday Weekday
##  2     0 2012-10-02        5 Tuesday Weekday
##  3     0 2012-10-02       10 Tuesday Weekday
##  4     0 2012-10-02       15 Tuesday Weekday
##  5     0 2012-10-02       20 Tuesday Weekday
##  6     0 2012-10-02       25 Tuesday Weekday
##  7     0 2012-10-02       30 Tuesday Weekday
##  8     0 2012-10-02       35 Tuesday Weekday
##  9     0 2012-10-02       40 Tuesday Weekday
## 10     0 2012-10-02       45 Tuesday Weekday
## # ... with 15,254 more rows
```
…
